\relax 
\providecommand\hyper@newdestlabel[2]{}
\@writefile{toc}{\contentsline {chapter}{\numberline {4}Herramientas y t\IeC {\'e}cnicas}{11}{chapter.4}}
\@writefile{lof}{\addvspace {10\p@ }}
\@writefile{lot}{\addvspace {10\p@ }}
\@writefile{toc}{\contentsline {section}{\numberline {4.1}T\IeC {\'e}cnicas}{11}{section.4.1}}
\@writefile{toc}{\contentsline {subsection}{\numberline {4.1.1}Scrum}{11}{subsection.4.1.1}}
\@writefile{toc}{\contentsline {subsection}{\numberline {4.1.2}Lenguajes de programaci\IeC {\'o}n}{11}{subsection.4.1.2}}
\@writefile{toc}{\contentsline {subsubsection}{Python}{11}{section*.2}}
\@writefile{toc}{\contentsline {subsection}{\numberline {4.1.3}Herramientas de documentaci\IeC {\'o}n}{11}{subsection.4.1.3}}
\@writefile{toc}{\contentsline {subsubsection}{\LaTeX  }{11}{section*.3}}
\@writefile{toc}{\contentsline {subsection}{\numberline {4.1.4}Sistema de control de versiones}{11}{subsection.4.1.4}}
\@writefile{toc}{\contentsline {subsubsection}{Bitbucket}{11}{section*.4}}
\@writefile{toc}{\contentsline {section}{\numberline {4.2}Herramientas de desarrollo}{11}{section.4.2}}
\@writefile{toc}{\contentsline {subsection}{\numberline {4.2.1}PyCharm}{11}{subsection.4.2.1}}
\@setckpt{chapters/chapter4}{
\setcounter{page}{12}
\setcounter{equation}{0}
\setcounter{enumi}{0}
\setcounter{enumii}{0}
\setcounter{enumiii}{0}
\setcounter{enumiv}{0}
\setcounter{footnote}{0}
\setcounter{mpfootnote}{0}
\setcounter{part}{0}
\setcounter{chapter}{4}
\setcounter{section}{2}
\setcounter{subsection}{1}
\setcounter{subsubsection}{0}
\setcounter{paragraph}{0}
\setcounter{subparagraph}{0}
\setcounter{figure}{0}
\setcounter{table}{0}
\setcounter{parentequation}{0}
\setcounter{su@anzahl}{0}
\setcounter{LT@tables}{0}
\setcounter{LT@chunks}{0}
\setcounter{Item}{0}
\setcounter{Hfootnote}{0}
\setcounter{bookmark@seq@number}{23}
\setcounter{section@level}{2}
}
