\relax 
\providecommand\hyper@newdestlabel[2]{}
\@writefile{toc}{\contentsline {chapter}{\numberline {5}Aspectos relevantes del desarrollo del proyecto}{13}{chapter.5}}
\@writefile{lof}{\addvspace {10\p@ }}
\@writefile{lot}{\addvspace {10\p@ }}
\@writefile{toc}{\contentsline {section}{\numberline {5.1}Ciclo de vida}{14}{section.5.1}}
\@writefile{toc}{\contentsline {section}{\numberline {5.2}Roles}{14}{section.5.2}}
\@writefile{toc}{\contentsline {subsection}{\numberline {5.2.1}Scrum Master}{14}{subsection.5.2.1}}
\@writefile{toc}{\contentsline {subsection}{\numberline {5.2.2}Product Owner}{14}{subsection.5.2.2}}
\@writefile{toc}{\contentsline {subsection}{\numberline {5.2.3}Equipo de trabajo}{14}{subsection.5.2.3}}
\@writefile{toc}{\contentsline {section}{\numberline {5.3}Sprint 0}{14}{section.5.3}}
\@writefile{toc}{\contentsline {section}{\numberline {5.4}Sprints}{14}{section.5.4}}
\@writefile{toc}{\contentsline {section}{\numberline {5.5}Artefactos}{14}{section.5.5}}
\@writefile{toc}{\contentsline {subsection}{\numberline {5.5.1}Product Backlog}{14}{subsection.5.5.1}}
\@writefile{toc}{\contentsline {subsubsection}{Historia de Usuario}{14}{section*.5}}
\@writefile{toc}{\contentsline {subsubsection}{\IeC {\'E}pica}{14}{section*.6}}
\@writefile{toc}{\contentsline {subsubsection}{Tema}{14}{section*.7}}
\@writefile{toc}{\contentsline {subsection}{\numberline {5.5.2}Sprint Backlog}{14}{subsection.5.5.2}}
\@writefile{toc}{\contentsline {subsubsection}{Historia de Usuario}{14}{section*.8}}
\@writefile{toc}{\contentsline {subsubsection}{Tema}{14}{section*.9}}
\@writefile{toc}{\contentsline {section}{\numberline {5.6}Sprint Review}{14}{section.5.6}}
\@setckpt{chapters/chapter5}{
\setcounter{page}{15}
\setcounter{equation}{0}
\setcounter{enumi}{0}
\setcounter{enumii}{0}
\setcounter{enumiii}{0}
\setcounter{enumiv}{0}
\setcounter{footnote}{0}
\setcounter{mpfootnote}{0}
\setcounter{part}{0}
\setcounter{chapter}{5}
\setcounter{section}{6}
\setcounter{subsection}{0}
\setcounter{subsubsection}{0}
\setcounter{paragraph}{0}
\setcounter{subparagraph}{0}
\setcounter{figure}{0}
\setcounter{table}{0}
\setcounter{parentequation}{0}
\setcounter{su@anzahl}{0}
\setcounter{LT@tables}{0}
\setcounter{LT@chunks}{0}
\setcounter{Item}{0}
\setcounter{Hfootnote}{0}
\setcounter{bookmark@seq@number}{35}
\setcounter{section@level}{1}
}
