\relax 
\providecommand\hyper@newdestlabel[2]{}
\@writefile{toc}{\contentsline {chapter}{\numberline {3}Conceptos te\IeC {\'o}ricos}{9}{chapter.3}}
\@writefile{lof}{\addvspace {10\p@ }}
\@writefile{lot}{\addvspace {10\p@ }}
\@writefile{toc}{\contentsline {section}{\numberline {3.1}Redes P2P}{9}{section.3.1}}
\@writefile{toc}{\contentsline {subsection}{\numberline {3.1.1}Concepto de P2P}{9}{subsection.3.1.1}}
\@writefile{toc}{\contentsline {subsection}{\numberline {3.1.2}Desaf\IeC {\'\i }os en la implementaci\IeC {\'o}n de aplicaciones P2P}{10}{subsection.3.1.2}}
\@writefile{toc}{\contentsline {subsection}{\numberline {3.1.3}Arquitectura}{10}{subsection.3.1.3}}
\@writefile{toc}{\contentsline {subsection}{\numberline {3.1.4}Historia de las redes P2P}{10}{subsection.3.1.4}}
\@writefile{toc}{\contentsline {subsection}{\numberline {3.1.5}Aplicaciones}{10}{subsection.3.1.5}}
\@writefile{toc}{\contentsline {section}{\numberline {3.2}Kademlia}{10}{section.3.2}}
\@writefile{toc}{\contentsline {section}{\numberline {3.3}BitTorrent}{10}{section.3.3}}
\@writefile{toc}{\contentsline {subsection}{\numberline {3.3.1}Protocolo BitTorrent}{10}{subsection.3.3.1}}
\@writefile{toc}{\contentsline {subsection}{\numberline {3.3.2}Protocolo Distributed Hash Table}{10}{subsection.3.3.2}}
\@setckpt{chapters/chapter3}{
\setcounter{page}{11}
\setcounter{equation}{0}
\setcounter{enumi}{0}
\setcounter{enumii}{0}
\setcounter{enumiii}{0}
\setcounter{enumiv}{0}
\setcounter{footnote}{0}
\setcounter{mpfootnote}{0}
\setcounter{part}{0}
\setcounter{chapter}{3}
\setcounter{section}{3}
\setcounter{subsection}{2}
\setcounter{subsubsection}{0}
\setcounter{paragraph}{0}
\setcounter{subparagraph}{0}
\setcounter{figure}{0}
\setcounter{table}{0}
\setcounter{parentequation}{0}
\setcounter{su@anzahl}{0}
\setcounter{LT@tables}{0}
\setcounter{LT@chunks}{0}
\setcounter{Item}{0}
\setcounter{Hfootnote}{0}
\setcounter{bookmark@seq@number}{15}
\setcounter{section@level}{2}
}
