\relax 
\providecommand\hyper@newdestlabel[2]{}
\catcode `"\active 
\catcode `<\active 
\catcode `>\active 
\@nameuse{es@quoting}
\catcode `'\active 
\providecommand\HyperFirstAtBeginDocument{\AtBeginDocument}
\HyperFirstAtBeginDocument{\ifx\hyper@anchor\@undefined
\global\let\oldcontentsline\contentsline
\gdef\contentsline#1#2#3#4{\oldcontentsline{#1}{#2}{#3}}
\global\let\oldnewlabel\newlabel
\gdef\newlabel#1#2{\newlabelxx{#1}#2}
\gdef\newlabelxx#1#2#3#4#5#6{\oldnewlabel{#1}{{#2}{#3}}}
\AtEndDocument{\ifx\hyper@anchor\@undefined
\let\contentsline\oldcontentsline
\let\newlabel\oldnewlabel
\fi}
\fi}
\global\let\hyper@last\relax 
\gdef\HyperFirstAtBeginDocument#1{#1}
\providecommand\HyField@AuxAddToFields[1]{}
\providecommand\HyField@AuxAddToCoFields[2]{}
\providecommand\@newglossary[4]{}
\@newglossary{main}{glg}{gls}{glo}
\@newglossary{acronym}{alg}{acr}{acn}
\@newglossary{symbolslist}{slg}{syi}{syg}
\providecommand\@glsorder[1]{}
\providecommand\@istfilename[1]{}
\@istfilename{tfg.ist}
\@glsorder{word}
\select@language{spanish}
\@writefile{toc}{\select@language{spanish}}
\@writefile{lof}{\select@language{spanish}}
\@writefile{lot}{\select@language{spanish}}
\@input{chapters/chapter1.aux}
\@input{chapters/chapter2.aux}
\@input{chapters/chapter3.aux}
\@input{chapters/chapter4.aux}
\@input{chapters/chapter5.aux}
\@input{chapters/chapter6.aux}
\@input{chapters/chapter7.aux}
\@input{glosario/glosario.aux}
\@writefile{toc}{\contentsline {chapter}{Glosario}{19}{section*.10}}
